[
{
    "model": "product.product",
    "pk": 1,
    "fields": {
        "name": "\u042f\u0431\u043b\u043e\u043a\u043e",
        "full_description": "\u041d\u0435\u0442 \u043e\u043f\u0438\u0441\u0430\u043d\u0438\u044f",
        "short_description": "\u041e\u0431\u044b\u0447\u043d\u043e\u0435 \u043a\u0440\u0430\u0441\u043d\u043e\u0435, \u0441 \u0447\u0435\u0440\u0432\u044f\u043c\u0438",
        "main_photo": "product/\u042f\u0431\u043b\u043e\u043a\u043e/\u044f\u0431\u043b\u043e\u043a\u043e_ZKyOF1K.jpg",
        "proteins": "1.00",
        "fats": "1.00",
        "carbohydrates": "9.80",
        "price": "24.99",
        "popularity": 53,
        "category": 1
    }
},
{
    "model": "product.product",
    "pk": 2,
    "fields": {
        "name": "\u0411\u0430\u043d\u0430\u043d",
        "full_description": "\u041d\u0435\u0442 \u043e\u043f\u0438\u0441\u0430\u043d\u0438\u044f",
        "short_description": "\u041d\u0430 \u043a\u0430\u0440\u0442\u0438\u043d\u043a\u0435 \u0436\u0435\u043b\u0442\u044b\u0439, \u0430 \u0442\u0430\u043a \u0443\u0436\u0435 \u0441\u0433\u043d\u0438\u043b",
        "main_photo": "product/\u0411\u0430\u043d\u0430\u043d/\u0431\u0430\u043d\u0430\u043d.jpg",
        "proteins": "3.00",
        "fats": "0.70",
        "carbohydrates": "12.70",
        "price": "29.00",
        "popularity": 10,
        "category": 1
    }
},
{
    "model": "product.product",
    "pk": 3,
    "fields": {
        "name": "\u0412\u0438\u043d\u043e\u0433\u0440\u0430\u0434",
        "full_description": "\u0412\u043a\u0443\u0441\u043d\u044b\u0439 \u0432\u0438\u043d\u043e\u0433\u0440\u0430\u0434, \u0431\u0435\u0437 \u043a\u043e\u0441\u0442\u043e\u0447\u0435\u043a",
        "short_description": "\u0412\u043a\u0443\u0441\u043d\u044b\u0439 \u0432\u0438\u043d\u043e\u0433\u0440\u0430\u0434, \u0431\u0435\u0437 \u043a\u043e\u0441\u0442\u043e\u0447\u0435\u043a",
        "main_photo": "product/\u0412\u0438\u043d\u043e\u0433\u0440\u0430\u0434/\u0412\u0438\u043d\u043e\u0433\u0440\u0430\u0434.jpg",
        "proteins": "0.00",
        "fats": "0.00",
        "carbohydrates": "7.00",
        "price": "3.59",
        "popularity": 27,
        "category": 1
    }
},
{
    "model": "product.product",
    "pk": 4,
    "fields": {
        "name": "\u0413\u043e\u0432\u044f\u0434\u0438\u043d\u0430",
        "full_description": "\u041f\u043e\u0447\u0442\u0438 \u0441\u0432\u0435\u0436\u0430\u044f",
        "short_description": "\u041f\u043e\u0447\u0442\u0438 \u0441\u0432\u0435\u0436\u0430\u044f",
        "main_photo": "product/\u0413\u043e\u0432\u044f\u0434\u0438\u043d\u0430/\u0433\u043e\u0432\u044f\u0434\u0438\u043d\u0430.jpg",
        "proteins": "21.30",
        "fats": "4.30",
        "carbohydrates": "8.65",
        "price": "110.23",
        "popularity": 53,
        "category": 2
    }
},
{
    "model": "product.product",
    "pk": 5,
    "fields": {
        "name": "\u0413\u0440\u0443\u0448\u0430",
        "full_description": "\u041d\u0435\u0442 \u043e\u043f\u0438\u0441\u0430\u043d\u0438\u044f",
        "short_description": "\u0413\u0440\u0443\u0448\u0430 \u043a\u0430\u043a \u0433\u0440\u0443\u0448\u0430, \u0441 \u0431\u0430\u0431\u0443\u0448\u043a\u0438\u043d\u043e\u0433\u043e \u043e\u0433\u043e\u0440\u043e\u0434\u0430",
        "main_photo": "product/\u0413\u0440\u0443\u0448\u0430/\u0433\u0440\u0443\u0448\u0430.jpeg",
        "proteins": "0.20",
        "fats": "0.30",
        "carbohydrates": "13.70",
        "price": "13.25",
        "popularity": 13,
        "category": 1
    }
},
{
    "model": "product.product",
    "pk": 6,
    "fields": {
        "name": "\u0416\u0435\u043b\u0442\u043e\u0435 \u044f\u0431\u043b\u043e\u043a\u043e",
        "full_description": "\u041d\u0435\u0442 \u043e\u043f\u0438\u0441\u0430\u043d\u0438\u044f",
        "short_description": "\u041a\u043b\u0430\u0441\u0441\u043d\u043e\u0435 \u0436\u0435\u043b\u0442\u043e\u0435 \u044f\u0431\u043b\u043e\u043a\u043e, \u043f\u0440\u044f\u043c \u043a\u0430\u043a \u043c\u043e\u044f \u0444\u0430\u043d\u0442\u0430\u0437\u0438\u044f",
        "main_photo": "product/\u0416\u0435\u043b\u0442\u043e\u0435 \u044f\u0431\u043b\u043e\u043a\u043e/\u0436\u0435\u043b\u0442\u043e\u0435_\u044f\u0431\u043b\u043e\u043a\u043e.jpeg",
        "proteins": "0.10",
        "fats": "0.20",
        "carbohydrates": "13.50",
        "price": "21.59",
        "popularity": 25,
        "category": 1
    }
},
{
    "model": "product.product",
    "pk": 7,
    "fields": {
        "name": "\u041a\u0430\u0440\u0442\u043e\u0448\u043a\u0430",
        "full_description": "\u041d\u0435\u0442 \u043e\u043f\u0438\u0441\u0430\u043d\u0438\u044f",
        "short_description": "\u041f\u0440\u044f\u043c\u0438\u043a\u043e\u043c \u0441 \u0411\u0435\u043b\u0430\u0440\u0443\u0441\u0438, \u043b\u0443\u0447\u0448\u0430\u044f!",
        "main_photo": "product/\u041a\u0430\u0440\u0442\u043e\u0448\u043a\u0430/\u043a\u0430\u0440\u0442\u043e\u0448\u043a\u0430.jpg",
        "proteins": "4.70",
        "fats": "2.30",
        "carbohydrates": "13.90",
        "price": "7.99",
        "popularity": 37,
        "category": 3
    }
},
{
    "model": "product.product",
    "pk": 8,
    "fields": {
        "name": "\u041a\u0443\u0440\u0438\u0446\u0430",
        "full_description": "\u041d\u0435\u0442 \u043e\u043f\u0438\u0441\u0430\u043d\u0438\u044f",
        "short_description": "\u0416\u0430\u043b\u044c \u0435\u0451",
        "main_photo": "product/\u041a\u0443\u0440\u0438\u0446\u0430/\u043a\u0443\u0440\u044f\u0442\u0438\u043d\u0430.jpg",
        "proteins": "7.90",
        "fats": "1.30",
        "carbohydrates": "3.00",
        "price": "110.99",
        "popularity": 38,
        "category": 2
    }
},
{
    "model": "product.product",
    "pk": 9,
    "fields": {
        "name": "\u041b\u0443\u043a",
        "full_description": "\u041d\u0435\u0442 \u043e\u043f\u0438\u0441\u0430\u043d\u0438\u044f",
        "short_description": "\u0418\u0437 \u043d\u0435\u0433\u043e \u043d\u0435\u043b\u044c\u0437\u044f \u0441\u0442\u0440\u0435\u043b\u044f\u0442\u044c :(",
        "main_photo": "product/\u041b\u0443\u043a/\u043b\u0443\u043a.jpg",
        "proteins": "0.00",
        "fats": "0.00",
        "carbohydrates": "3.00",
        "price": "3.99",
        "popularity": 9,
        "category": 3
    }
},
{
    "model": "product.product",
    "pk": 10,
    "fields": {
        "name": "\u041c\u043e\u0440\u043a\u043e\u0432\u044c",
        "full_description": "\u041d\u0435\u0442 \u043e\u043f\u0438\u0441\u0430\u043d\u0438\u044f",
        "short_description": "\u0421\u0430\u043c\u0430\u044f \u0441\u0432\u0435\u0436\u0430\u044f",
        "main_photo": "product/\u041c\u043e\u0440\u043a\u043e\u0432\u044c/\u043c\u043e\u0440\u043a\u043e\u0432\u044c.jpg",
        "proteins": "0.00",
        "fats": "0.00",
        "carbohydrates": "7.00",
        "price": "11.99",
        "popularity": 14,
        "category": 3
    }
},
{
    "model": "product.product",
    "pk": 11,
    "fields": {
        "name": "\u041d\u0438\u0447\u0435 \u0442\u0430\u043a\u043e\u0439 \u043f\u0440\u043e\u0434\u0443\u043a\u0442",
        "full_description": "\u0411\u0435\u0437 \u0441\u043b\u043e\u0432",
        "short_description": "\u0411\u0435\u0437 \u0441\u043b\u043e\u0432",
        "main_photo": "product/\u041d\u0438\u0447\u0435 \u0442\u0430\u043a\u043e\u0439 \u043f\u0440\u043e\u0434\u0443\u043a\u0442/\u043e\u0432\u043e\u0449\u044c_\u043d\u0430_\u043c\u0430\u043a\u0441\u0438\u043c\u0430\u043b\u043a\u0430\u0445.jpg",
        "proteins": "0.00",
        "fats": "99.00",
        "carbohydrates": "99.00",
        "price": "0.01",
        "popularity": 34,
        "category": 3
    }
},
{
    "model": "product.product",
    "pk": 12,
    "fields": {
        "name": "\u041f\u0435\u0440\u0435\u0446 \u0441\u043b\u0430\u0434\u043a\u0438\u0439",
        "full_description": "\u0418 \u043d\u0438\u0447\u0435\u0433\u043e \u043e\u043d \u043d\u0435 \u0441\u043b\u0430\u0434\u043a\u0438\u0439, \u0444\u0443",
        "short_description": "\u0418 \u043d\u0438\u0447\u0435\u0433\u043e \u043e\u043d \u043d\u0435 \u0441\u043b\u0430\u0434\u043a\u0438\u0439, \u0444\u0443",
        "main_photo": "product/\u041f\u0435\u0440\u0435\u0446 \u0441\u043b\u0430\u0434\u043a\u0438\u0439/\u043f\u0435\u0440\u0435\u0446_\u0441\u043b\u0430\u0434\u043a\u0438\u0439.jpg",
        "proteins": "0.00",
        "fats": "0.00",
        "carbohydrates": "5.30",
        "price": "5.99",
        "popularity": 10,
        "category": 3
    }
},
{
    "model": "product.product",
    "pk": 13,
    "fields": {
        "name": "\u041f\u0435\u0440\u0435\u0446 \u0447\u0438\u043b\u0438",
        "full_description": "\u0415\u0441\u043b\u0438 \u0441\u044a\u0435\u0448\u044c - \u043d\u0435 \u0441\u043c\u043e\u0436\u0435\u0448\u044c \u0447\u0438\u043b\u0438\u0442\u044c",
        "short_description": "\u0415\u0441\u043b\u0438 \u0441\u044a\u0435\u0448\u044c - \u043d\u0435 \u0441\u043c\u043e\u0436\u0435\u0448\u044c \u0447\u0438\u043b\u0438\u0442\u044c",
        "main_photo": "product/\u041f\u0435\u0440\u0435\u0446 \u0447\u0438\u043b\u0438/\u043f\u0435\u0440\u0435\u0446_\u0447\u0438\u043b\u0438.jpg",
        "proteins": "0.00",
        "fats": "0.00",
        "carbohydrates": "9.30",
        "price": "86.99",
        "popularity": 35,
        "category": 3
    }
},
{
    "model": "product.category",
    "pk": 1,
    "fields": {
        "name": "\u0424\u0440\u0443\u043a\u0442\u044b"
    }
},
{
    "model": "product.category",
    "pk": 2,
    "fields": {
        "name": "\u041c\u044f\u0441\u043e"
    }
},
{
    "model": "product.category",
    "pk": 3,
    "fields": {
        "name": "\u041e\u0432\u043e\u0449\u0438"
    }
},
{
    "model": "product.image",
    "pk": 1,
    "fields": {
        "image": "product/\u0411\u0430\u043d\u0430\u043d/additional_images/\u0431\u0430\u043d\u0430\u043d_\u044d\u043a\u0441\u0442\u0440\u0430.jpg",
        "product": 2
    }
},
{
    "model": "product.image",
    "pk": 2,
    "fields": {
        "image": "product/\u0411\u0430\u043d\u0430\u043d/additional_images/\u0431\u0430\u043d\u0430\u043d_\u0433\u043d\u0438\u043b\u043e\u0439.jpg",
        "product": 2
    }
}
]
